

================================================================
== Vivado HLS Report for 'cnnshift_arr_ap_fixed_ap_fixed_32_16_5_3_0_config17_s'
================================================================
* Date:           Fri Mar 25 17:58:23 2022

* Version:        2019.2 (Build 2704478 on Wed Nov 06 22:10:23 MST 2019)
* Project:        myproject_prj
* Solution:       solution1
* Product family: zynquplus
* Target device:  xczu9eg-ffvb1156-2-e


================================================================
== Performance Estimates
================================================================
+ Timing: 
    * Summary: 
    +--------+---------+----------+------------+
    |  Clock |  Target | Estimated| Uncertainty|
    +--------+---------+----------+------------+
    |ap_clk  | 5.00 ns | 0.717 ns |   0.62 ns  |
    +--------+---------+----------+------------+

+ Latency: 
    * Summary: 
    +---------+---------+----------+----------+-----+-----+----------+
    |  Latency (cycles) |  Latency (absolute) |  Interval | Pipeline |
    |   min   |   max   |    min   |    max   | min | max |   Type   |
    +---------+---------+----------+----------+-----+-----+----------+
    |        0|        0|   0 ns   |   0 ns   |    1|    1| function |
    +---------+---------+----------+----------+-----+-----+----------+

    + Detail: 
        * Instance: 
        N/A

        * Loop: 
        N/A



================================================================
== Utilization Estimates
================================================================
* Summary: 
+-----------------+---------+-------+--------+--------+-----+
|       Name      | BRAM_18K| DSP48E|   FF   |   LUT  | URAM|
+-----------------+---------+-------+--------+--------+-----+
|DSP              |        -|      -|       -|       -|    -|
|Expression       |        -|      -|       -|       -|    -|
|FIFO             |        -|      -|       -|       -|    -|
|Instance         |        -|      -|       -|       -|    -|
|Memory           |        0|      -|    2048|    1024|    -|
|Multiplexer      |        -|      -|       -|       -|    -|
|Register         |        -|      -|       1|       -|    -|
+-----------------+---------+-------+--------+--------+-----+
|Total            |        0|      0|    2049|    1024|    0|
+-----------------+---------+-------+--------+--------+-----+
|Available        |     1824|   2520|  548160|  274080|    0|
+-----------------+---------+-------+--------+--------+-----+
|Utilization (%)  |        0|      0|   ~0   |   ~0   |    0|
+-----------------+---------+-------+--------+--------+-----+

+ Detail: 
    * Instance: 
    N/A

    * DSP48E: 
    N/A

    * Memory: 
    +-------------------------------+--------------------------------------------------------------+---------+----+----+-----+------+-----+------+-------------+
    |             Memory            |                            Module                            | BRAM_18K| FF | LUT| URAM| Words| Bits| Banks| W*Bits*Banks|
    +-------------------------------+--------------------------------------------------------------+---------+----+----+-----+------+-----+------+-------------+
    |layer_in_row_Array_V_6_0_0_U   |cnnshift_arr_ap_fixed_ap_fixed_32_16_5_3_0_config17_s_layclv  |        0|  64|  32|    0|    27|   32|     1|          864|
    |layer_in_row_Array_V_6_0_1_U   |cnnshift_arr_ap_fixed_ap_fixed_32_16_5_3_0_config17_s_layclv  |        0|  64|  32|    0|    27|   32|     1|          864|
    |layer_in_row_Array_V_6_0_2_U   |cnnshift_arr_ap_fixed_ap_fixed_32_16_5_3_0_config17_s_layclv  |        0|  64|  32|    0|    27|   32|     1|          864|
    |layer_in_row_Array_V_6_0_3_U   |cnnshift_arr_ap_fixed_ap_fixed_32_16_5_3_0_config17_s_layclv  |        0|  64|  32|    0|    27|   32|     1|          864|
    |layer_in_row_Array_V_6_0_4_U   |cnnshift_arr_ap_fixed_ap_fixed_32_16_5_3_0_config17_s_layclv  |        0|  64|  32|    0|    27|   32|     1|          864|
    |layer_in_row_Array_V_6_0_5_U   |cnnshift_arr_ap_fixed_ap_fixed_32_16_5_3_0_config17_s_layclv  |        0|  64|  32|    0|    27|   32|     1|          864|
    |layer_in_row_Array_V_6_0_6_U   |cnnshift_arr_ap_fixed_ap_fixed_32_16_5_3_0_config17_s_layclv  |        0|  64|  32|    0|    27|   32|     1|          864|
    |layer_in_row_Array_V_6_0_7_U   |cnnshift_arr_ap_fixed_ap_fixed_32_16_5_3_0_config17_s_layclv  |        0|  64|  32|    0|    27|   32|     1|          864|
    |layer_in_row_Array_V_6_0_8_U   |cnnshift_arr_ap_fixed_ap_fixed_32_16_5_3_0_config17_s_layclv  |        0|  64|  32|    0|    27|   32|     1|          864|
    |layer_in_row_Array_V_6_0_9_U   |cnnshift_arr_ap_fixed_ap_fixed_32_16_5_3_0_config17_s_layclv  |        0|  64|  32|    0|    27|   32|     1|          864|
    |layer_in_row_Array_V_6_0_10_U  |cnnshift_arr_ap_fixed_ap_fixed_32_16_5_3_0_config17_s_layclv  |        0|  64|  32|    0|    27|   32|     1|          864|
    |layer_in_row_Array_V_6_0_11_U  |cnnshift_arr_ap_fixed_ap_fixed_32_16_5_3_0_config17_s_layclv  |        0|  64|  32|    0|    27|   32|     1|          864|
    |layer_in_row_Array_V_6_0_12_U  |cnnshift_arr_ap_fixed_ap_fixed_32_16_5_3_0_config17_s_layclv  |        0|  64|  32|    0|    27|   32|     1|          864|
    |layer_in_row_Array_V_6_0_13_U  |cnnshift_arr_ap_fixed_ap_fixed_32_16_5_3_0_config17_s_layclv  |        0|  64|  32|    0|    27|   32|     1|          864|
    |layer_in_row_Array_V_6_0_14_U  |cnnshift_arr_ap_fixed_ap_fixed_32_16_5_3_0_config17_s_layclv  |        0|  64|  32|    0|    27|   32|     1|          864|
    |layer_in_row_Array_V_6_0_15_U  |cnnshift_arr_ap_fixed_ap_fixed_32_16_5_3_0_config17_s_layclv  |        0|  64|  32|    0|    27|   32|     1|          864|
    |layer_in_row_Array_V_6_0_16_U  |cnnshift_arr_ap_fixed_ap_fixed_32_16_5_3_0_config17_s_layclv  |        0|  64|  32|    0|    27|   32|     1|          864|
    |layer_in_row_Array_V_6_0_17_U  |cnnshift_arr_ap_fixed_ap_fixed_32_16_5_3_0_config17_s_layclv  |        0|  64|  32|    0|    27|   32|     1|          864|
    |layer_in_row_Array_V_6_0_18_U  |cnnshift_arr_ap_fixed_ap_fixed_32_16_5_3_0_config17_s_layclv  |        0|  64|  32|    0|    27|   32|     1|          864|
    |layer_in_row_Array_V_6_0_19_U  |cnnshift_arr_ap_fixed_ap_fixed_32_16_5_3_0_config17_s_layclv  |        0|  64|  32|    0|    27|   32|     1|          864|
    |layer_in_row_Array_V_6_0_20_U  |cnnshift_arr_ap_fixed_ap_fixed_32_16_5_3_0_config17_s_layclv  |        0|  64|  32|    0|    27|   32|     1|          864|
    |layer_in_row_Array_V_6_0_21_U  |cnnshift_arr_ap_fixed_ap_fixed_32_16_5_3_0_config17_s_layclv  |        0|  64|  32|    0|    27|   32|     1|          864|
    |layer_in_row_Array_V_6_0_22_U  |cnnshift_arr_ap_fixed_ap_fixed_32_16_5_3_0_config17_s_layclv  |        0|  64|  32|    0|    27|   32|     1|          864|
    |layer_in_row_Array_V_6_0_23_U  |cnnshift_arr_ap_fixed_ap_fixed_32_16_5_3_0_config17_s_layclv  |        0|  64|  32|    0|    27|   32|     1|          864|
    |layer_in_row_Array_V_6_0_24_U  |cnnshift_arr_ap_fixed_ap_fixed_32_16_5_3_0_config17_s_layclv  |        0|  64|  32|    0|    27|   32|     1|          864|
    |layer_in_row_Array_V_6_0_25_U  |cnnshift_arr_ap_fixed_ap_fixed_32_16_5_3_0_config17_s_layclv  |        0|  64|  32|    0|    27|   32|     1|          864|
    |layer_in_row_Array_V_6_0_26_U  |cnnshift_arr_ap_fixed_ap_fixed_32_16_5_3_0_config17_s_layclv  |        0|  64|  32|    0|    27|   32|     1|          864|
    |layer_in_row_Array_V_6_0_27_U  |cnnshift_arr_ap_fixed_ap_fixed_32_16_5_3_0_config17_s_layclv  |        0|  64|  32|    0|    27|   32|     1|          864|
    |layer_in_row_Array_V_6_0_28_U  |cnnshift_arr_ap_fixed_ap_fixed_32_16_5_3_0_config17_s_layclv  |        0|  64|  32|    0|    27|   32|     1|          864|
    |layer_in_row_Array_V_6_0_29_U  |cnnshift_arr_ap_fixed_ap_fixed_32_16_5_3_0_config17_s_layclv  |        0|  64|  32|    0|    27|   32|     1|          864|
    |layer_in_row_Array_V_6_0_30_U  |cnnshift_arr_ap_fixed_ap_fixed_32_16_5_3_0_config17_s_layclv  |        0|  64|  32|    0|    27|   32|     1|          864|
    |layer_in_row_Array_V_6_0_31_U  |cnnshift_arr_ap_fixed_ap_fixed_32_16_5_3_0_config17_s_layclv  |        0|  64|  32|    0|    27|   32|     1|          864|
    +-------------------------------+--------------------------------------------------------------+---------+----+----+-----+------+-----+------+-------------+
    |Total                          |                                                              |        0|2048|1024|    0|   864| 1024|    32|        27648|
    +-------------------------------+--------------------------------------------------------------+---------+----+----+-----+------+-----+------+-------------+

    * FIFO: 
    N/A

    * Expression: 
    N/A

    * Multiplexer: 
    N/A

    * Register: 
    +-----------+---+----+-----+-----------+
    |    Name   | FF| LUT| Bits| Const Bits|
    +-----------+---+----+-----+-----------+
    |ap_CS_fsm  |  1|   0|    1|          0|
    +-----------+---+----+-----+-----------+
    |Total      |  1|   0|    1|          0|
    +-----------+---+----+-----+-----------+



================================================================
== Interface
================================================================
* Summary: 
+----------------+-----+------+------------+-------------------------------------------------------+--------------+
|    RTL Ports   | Dir | Bits |  Protocol  |                     Source Object                     |    C Type    |
+----------------+-----+------+------------+-------------------------------------------------------+--------------+
|ap_clk          |  in |     1| ap_ctrl_hs | cnnshift_arr<ap_fixed,ap_fixed<32,16,5,3,0>,config17> | return value |
|ap_rst          |  in |     1| ap_ctrl_hs | cnnshift_arr<ap_fixed,ap_fixed<32,16,5,3,0>,config17> | return value |
|ap_start        |  in |     1| ap_ctrl_hs | cnnshift_arr<ap_fixed,ap_fixed<32,16,5,3,0>,config17> | return value |
|ap_done         | out |     1| ap_ctrl_hs | cnnshift_arr<ap_fixed,ap_fixed<32,16,5,3,0>,config17> | return value |
|ap_idle         | out |     1| ap_ctrl_hs | cnnshift_arr<ap_fixed,ap_fixed<32,16,5,3,0>,config17> | return value |
|ap_ready        | out |     1| ap_ctrl_hs | cnnshift_arr<ap_fixed,ap_fixed<32,16,5,3,0>,config17> | return value |
|ap_return       | out |  4096| ap_ctrl_hs | cnnshift_arr<ap_fixed,ap_fixed<32,16,5,3,0>,config17> | return value |
|data_0_V_read   |  in |    32|   ap_none  |                     data_0_V_read                     |    scalar    |
|data_1_V_read   |  in |    32|   ap_none  |                     data_1_V_read                     |    scalar    |
|data_2_V_read   |  in |    32|   ap_none  |                     data_2_V_read                     |    scalar    |
|data_3_V_read   |  in |    32|   ap_none  |                     data_3_V_read                     |    scalar    |
|data_4_V_read   |  in |    32|   ap_none  |                     data_4_V_read                     |    scalar    |
|data_5_V_read   |  in |    32|   ap_none  |                     data_5_V_read                     |    scalar    |
|data_6_V_read   |  in |    32|   ap_none  |                     data_6_V_read                     |    scalar    |
|data_7_V_read   |  in |    32|   ap_none  |                     data_7_V_read                     |    scalar    |
|data_8_V_read   |  in |    32|   ap_none  |                     data_8_V_read                     |    scalar    |
|data_9_V_read   |  in |    32|   ap_none  |                     data_9_V_read                     |    scalar    |
|data_10_V_read  |  in |    32|   ap_none  |                     data_10_V_read                    |    scalar    |
|data_11_V_read  |  in |    32|   ap_none  |                     data_11_V_read                    |    scalar    |
|data_12_V_read  |  in |    32|   ap_none  |                     data_12_V_read                    |    scalar    |
|data_13_V_read  |  in |    32|   ap_none  |                     data_13_V_read                    |    scalar    |
|data_14_V_read  |  in |    32|   ap_none  |                     data_14_V_read                    |    scalar    |
|data_15_V_read  |  in |    32|   ap_none  |                     data_15_V_read                    |    scalar    |
|data_16_V_read  |  in |    32|   ap_none  |                     data_16_V_read                    |    scalar    |
|data_17_V_read  |  in |    32|   ap_none  |                     data_17_V_read                    |    scalar    |
|data_18_V_read  |  in |    32|   ap_none  |                     data_18_V_read                    |    scalar    |
|data_19_V_read  |  in |    32|   ap_none  |                     data_19_V_read                    |    scalar    |
|data_20_V_read  |  in |    32|   ap_none  |                     data_20_V_read                    |    scalar    |
|data_21_V_read  |  in |    32|   ap_none  |                     data_21_V_read                    |    scalar    |
|data_22_V_read  |  in |    32|   ap_none  |                     data_22_V_read                    |    scalar    |
|data_23_V_read  |  in |    32|   ap_none  |                     data_23_V_read                    |    scalar    |
|data_24_V_read  |  in |    32|   ap_none  |                     data_24_V_read                    |    scalar    |
|data_25_V_read  |  in |    32|   ap_none  |                     data_25_V_read                    |    scalar    |
|data_26_V_read  |  in |    32|   ap_none  |                     data_26_V_read                    |    scalar    |
|data_27_V_read  |  in |    32|   ap_none  |                     data_27_V_read                    |    scalar    |
|data_28_V_read  |  in |    32|   ap_none  |                     data_28_V_read                    |    scalar    |
|data_29_V_read  |  in |    32|   ap_none  |                     data_29_V_read                    |    scalar    |
|data_30_V_read  |  in |    32|   ap_none  |                     data_30_V_read                    |    scalar    |
|data_31_V_read  |  in |    32|   ap_none  |                     data_31_V_read                    |    scalar    |
|output_V_read   |  in |  4096|   ap_none  |                     output_V_read                     |    scalar    |
+----------------+-----+------+------------+-------------------------------------------------------+--------------+

