

================================================================
== Vivado HLS Report for 'conv_2d_cl_me_ap_fixed_ap_fixed_32_16_5_3_0_config22_s'
================================================================
* Date:           Fri Mar 25 17:59:47 2022

* Version:        2019.2 (Build 2704478 on Wed Nov 06 22:10:23 MST 2019)
* Project:        myproject_prj
* Solution:       solution1
* Product family: zynquplus
* Target device:  xczu9eg-ffvb1156-2-e


================================================================
== Performance Estimates
================================================================
+ Timing: 
    * Summary: 
    +--------+---------+----------+------------+
    |  Clock |  Target | Estimated| Uncertainty|
    +--------+---------+----------+------------+
    |ap_clk  | 5.00 ns | 4.184 ns |   0.62 ns  |
    +--------+---------+----------+------------+

+ Latency: 
    * Summary: 
    +---------+-----------+----------+-----------+--------+-----------+---------+
    |   Latency (cycles)  |  Latency (absolute)  |      Interval      | Pipeline|
    |   min   |    max    |    min   |    max    |   min  |    max    |   Type  |
    +---------+-----------+----------+-----------+--------+-----------+---------+
    |   108001|  230707441| 0.540 ms | 1.154 sec |  108001|  230707441|   none  |
    +---------+-----------+----------+-----------+--------+-----------+---------+

    + Detail: 
        * Instance: 
        +--------------------------------------------------------------------+-------------------------------------------------------+---------+---------+----------+----------+-----+-----+---------+
        |                                                                    |                                                       |  Latency (cycles) |  Latency (absolute) |  Interval | Pipeline|
        |                              Instance                              |                         Module                        |   min   |   max   |    min   |    max   | min | max |   Type  |
        +--------------------------------------------------------------------+-------------------------------------------------------+---------+---------+----------+----------+-----+-----+---------+
        |grp_cnnshift_arr_ap_fixed_ap_fixed_32_16_5_3_0_config22_s_fu_15038  |cnnshift_arr_ap_fixed_ap_fixed_32_16_5_3_0_config22_s  |      383|      383| 1.915 us | 1.915 us |  383|  383|   none  |
        |op_V_assign_7_product_dense_ap_fixed_ap_fixed_ap_fixed_s_fu_15301   |product_dense_ap_fixed_ap_fixed_ap_fixed_s             |        0|        0|   0 ns   |   0 ns   |    0|    0|   none  |
        +--------------------------------------------------------------------+-------------------------------------------------------+---------+---------+----------+----------+-----+-----+---------+

        * Loop: 
        +-----------------+---------+-----------+--------------+-----------+-----------+------+----------+
        |                 |   Latency (cycles)  |   Iteration  |  Initiation Interval  | Trip |          |
        |    Loop Name    |   min   |    max    |    Latency   |  achieved |   target  | Count| Pipelined|
        +-----------------+---------+-----------+--------------+-----------+-----------+------+----------+
        |- Loop 1         |   108000|  230707440| 450 ~ 961281 |          -|          -|   240|    no    |
        | + Loop 1.1      |   960768|     960768|          1668|          -|          -|   576|    no    |
        |  ++ Loop 1.1.1  |     1472|       1472|            23|          -|          -|    64|    no    |
        |  ++ Loop 1.1.2  |      192|        192|             3|          -|          -|    64|    no    |
        +-----------------+---------+-----------+--------------+-----------+-----------+------+----------+



================================================================
== Utilization Estimates
================================================================
* Summary: 
+-----------------+---------+-------+--------+--------+-----+
|       Name      | BRAM_18K| DSP48E|   FF   |   LUT  | URAM|
+-----------------+---------+-------+--------+--------+-----+
|DSP              |        -|      1|       -|       -|    -|
|Expression       |        -|      -|       0|    9100|    -|
|FIFO             |        -|      -|       -|       -|    -|
|Instance         |        0|      4|   25098|   13219|    -|
|Memory           |        3|      -|       0|       0|    0|
|Multiplexer      |        -|      -|       -|    2908|    -|
|Register         |        -|      -|   10842|       -|    -|
+-----------------+---------+-------+--------+--------+-----+
|Total            |        3|      5|   35940|   25227|    0|
+-----------------+---------+-------+--------+--------+-----+
|Available        |     1824|   2520|  548160|  274080|    0|
+-----------------+---------+-------+--------+--------+-----+
|Utilization (%)  |    ~0   |   ~0  |       6|       9|    0|
+-----------------+---------+-------+--------+--------+-----+

+ Detail: 
    * Instance: 
    +--------------------------------------------------------------------+-------------------------------------------------------+---------+-------+-------+-------+-----+
    |                              Instance                              |                         Module                        | BRAM_18K| DSP48E|   FF  |  LUT  | URAM|
    +--------------------------------------------------------------------+-------------------------------------------------------+---------+-------+-------+-------+-----+
    |grp_cnnshift_arr_ap_fixed_ap_fixed_32_16_5_3_0_config22_s_fu_15038  |cnnshift_arr_ap_fixed_ap_fixed_32_16_5_3_0_config22_s  |        0|      0|  24896|  11745|    0|
    |myproject_mux_646_32_1_1_U143                                       |myproject_mux_646_32_1_1                               |        0|      0|      0|   1362|    0|
    |myproject_urem_16ns_11ns_16_20_seq_1_U142                           |myproject_urem_16ns_11ns_16_20_seq_1                   |        0|      0|    202|     92|    0|
    |op_V_assign_7_product_dense_ap_fixed_ap_fixed_ap_fixed_s_fu_15301   |product_dense_ap_fixed_ap_fixed_ap_fixed_s             |        0|      4|      0|     20|    0|
    +--------------------------------------------------------------------+-------------------------------------------------------+---------+-------+-------+-------+-----+
    |Total                                                               |                                                       |        0|      4|  25098|  13219|    0|
    +--------------------------------------------------------------------+-------------------------------------------------------+---------+-------+-------+-------+-----+

    * DSP48E: 
    +-----------------------------------------+------------------------------------+-----------+
    |                 Instance                |               Module               | Expression|
    +-----------------------------------------+------------------------------------+-----------+
    |myproject_mul_mul_18ns_16ns_34_1_1_U144  |myproject_mul_mul_18ns_16ns_34_1_1  |  i0 * i1  |
    +-----------------------------------------+------------------------------------+-----------+

    * Memory: 
    +-----------------+--------------------------------------------------------------+---------+---+----+-----+------+-----+------+-------------+
    |      Memory     |                            Module                            | BRAM_18K| FF| LUT| URAM| Words| Bits| Banks| W*Bits*Banks|
    +-----------------+--------------------------------------------------------------+---------+---+----+-----+------+-----+------+-------------+
    |tmpmult_V_U      |conv_2d_cl_me_ap_fixed_ap_fixed_32_16_5_3_0_config18_s_tmdUL  |        1|  0|   0|    0|    64|   32|     1|         2048|
    |layer_in_V_14_U  |conv_2d_cl_me_ap_fixed_ap_fixed_32_16_5_3_0_config22_s_lafZ6  |        2|  0|   0|    0|   576|   32|     1|        18432|
    +-----------------+--------------------------------------------------------------+---------+---+----+-----+------+-----+------+-------------+
    |Total            |                                                              |        3|  0|   0|    0|   640|   64|     2|        20480|
    +-----------------+--------------------------------------------------------------+---------+---+----+-----+------+-----+------+-------------+

    * FIFO: 
    N/A

    * Expression: 
    +-----------------------------+----------+-------+---+------+------------+------------+
    |        Variable Name        | Operation| DSP48E| FF|  LUT | Bitwidth P0| Bitwidth P1|
    +-----------------------------+----------+-------+---+------+------------+------------+
    |acc_0_V_fu_15840_p2          |     +    |      0|  0|    39|          32|          32|
    |add_ln206_fu_15897_p2        |     +    |      0|  0|    39|          32|           1|
    |add_ln208_fu_15908_p2        |     +    |      0|  0|    39|          32|           1|
    |add_ln211_fu_15851_p2        |     +    |      0|  0|    39|          32|           1|
    |add_ln213_fu_15862_p2        |     +    |      0|  0|    39|          32|           1|
    |add_ln366_7_fu_15527_p2      |     +    |      0|  0|    20|          13|          13|
    |add_ln366_fu_15536_p2        |     +    |      0|  0|    23|          16|          16|
    |i_fu_15313_p2                |     +    |      0|  0|    15|           8|           1|
    |im_9_fu_15692_p2             |     +    |      0|  0|    15|           7|           1|
    |im_fu_15493_p2               |     +    |      0|  0|    15|           7|           1|
    |ir_fu_15472_p2               |     +    |      0|  0|    17|          10|           1|
    |sub_ln366_17_fu_15615_p2     |     -    |      0|  0|    19|          12|          12|
    |sub_ln366_18_fu_15645_p2     |     -    |      0|  0|    19|          11|          12|
    |sub_ln366_fu_15603_p2        |     -    |      0|  0|    19|          12|          12|
    |and_ln176_13_fu_15454_p2     |    and   |      0|  0|     2|           1|           1|
    |and_ln176_14_fu_15460_p2     |    and   |      0|  0|     2|           1|           1|
    |and_ln176_fu_15448_p2        |    and   |      0|  0|     2|           1|           1|
    |and_ln366_fu_15671_p2        |    and   |      0|  0|  2048|        2048|        2048|
    |ap_block_state158            |    and   |      0|  0|     2|           1|           1|
    |ap_block_state2              |    and   |      0|  0|     2|           1|           1|
    |ap_block_state68             |    and   |      0|  0|     2|           1|           1|
    |ap_condition_1289            |    and   |      0|  0|     2|           1|           1|
    |ap_condition_5592            |    and   |      0|  0|     2|           1|           1|
    |icmp_ln167_fu_15307_p2       |   icmp   |      0|  0|    11|           8|           6|
    |icmp_ln176_19_fu_15402_p2    |   icmp   |      0|  0|    20|          32|           2|
    |icmp_ln176_20_fu_15422_p2    |   icmp   |      0|  0|    20|          31|           1|
    |icmp_ln176_21_fu_15442_p2    |   icmp   |      0|  0|    20|          31|           1|
    |icmp_ln176_fu_15392_p2       |   icmp   |      0|  0|    20|          32|           2|
    |icmp_ln198_fu_15846_p2       |   icmp   |      0|  0|    20|          32|           4|
    |icmp_ln202_fu_15892_p2       |   icmp   |      0|  0|    20|          32|           4|
    |icmp_ln358_fu_15466_p2       |   icmp   |      0|  0|    13|          10|          10|
    |icmp_ln363_fu_15487_p2       |   icmp   |      0|  0|    11|           7|           8|
    |icmp_ln366_fu_15579_p2       |   icmp   |      0|  0|    13|          11|          11|
    |icmp_ln372_fu_15686_p2       |   icmp   |      0|  0|    11|           7|           8|
    |lshr_ln366_9_fu_15665_p2     |   lshr   |      0|  0|  2171|           2|        2048|
    |lshr_ln366_fu_15659_p2       |   lshr   |      0|  0|  2171|        2048|        2048|
    |ap_block_state1              |    or    |      0|  0|     2|           1|           1|
    |empty_222_fu_15573_p2        |    or    |      0|  0|    11|          11|           5|
    |select_ln208_fu_15913_p3     |  select  |      0|  0|    32|           1|           2|
    |select_ln213_fu_15867_p3     |  select  |      0|  0|    32|           1|           2|
    |select_ln366_17_fu_15629_p3  |  select  |      0|  0|  2047|           1|        2048|
    |select_ln366_18_fu_15637_p3  |  select  |      0|  0|    11|           1|          12|
    |select_ln366_fu_15621_p3     |  select  |      0|  0|    11|           1|          12|
    |xor_ln366_fu_15609_p2        |    xor   |      0|  0|    12|          12|          11|
    +-----------------------------+----------+-------+---+------+------------+------------+
    |Total                        |          |      0|  0|  9100|        4624|        8407|
    +-----------------------------+----------+-------+---+------+------------+------------+

    * Multiplexer: 
    +-----------------------------------------+-----+-----------+-----+-----------+
    |                   Name                  | LUT | Input Size| Bits| Total Bits|
    +-----------------------------------------+-----+-----------+-----+-----------+
    |acc_0_V_1_be_reg_14830                   |    9|          2|   32|         64|
    |acc_0_V_1_reg_2333                       |    9|          2|   32|         64|
    |acc_10_V_1_be_reg_12850                  |    9|          2|   32|         64|
    |acc_10_V_1_reg_2213                      |    9|          2|   32|         64|
    |acc_11_V_1_be_reg_12652                  |    9|          2|   32|         64|
    |acc_11_V_1_reg_2201                      |    9|          2|   32|         64|
    |acc_12_V_1_be_reg_12454                  |    9|          2|   32|         64|
    |acc_12_V_1_reg_2189                      |    9|          2|   32|         64|
    |acc_13_V_1_be_reg_12256                  |    9|          2|   32|         64|
    |acc_13_V_1_reg_2177                      |    9|          2|   32|         64|
    |acc_14_V_1_be_reg_12058                  |    9|          2|   32|         64|
    |acc_14_V_1_reg_2165                      |    9|          2|   32|         64|
    |acc_15_V_1_be_reg_11860                  |    9|          2|   32|         64|
    |acc_15_V_1_reg_2153                      |    9|          2|   32|         64|
    |acc_16_V_1_be_reg_11662                  |    9|          2|   32|         64|
    |acc_16_V_1_reg_2141                      |    9|          2|   32|         64|
    |acc_17_V_1_be_reg_11464                  |    9|          2|   32|         64|
    |acc_17_V_1_reg_2129                      |    9|          2|   32|         64|
    |acc_18_V_1_be_reg_11266                  |    9|          2|   32|         64|
    |acc_18_V_1_reg_2117                      |    9|          2|   32|         64|
    |acc_19_V_1_be_reg_11068                  |    9|          2|   32|         64|
    |acc_19_V_1_reg_2105                      |    9|          2|   32|         64|
    |acc_1_V_1_be_reg_14632                   |    9|          2|   32|         64|
    |acc_1_V_1_reg_2321                       |    9|          2|   32|         64|
    |acc_20_V_1_be_reg_10870                  |    9|          2|   32|         64|
    |acc_20_V_1_reg_2093                      |    9|          2|   32|         64|
    |acc_21_V_1_be_reg_10672                  |    9|          2|   32|         64|
    |acc_21_V_1_reg_2081                      |    9|          2|   32|         64|
    |acc_22_V_1_be_reg_10474                  |    9|          2|   32|         64|
    |acc_22_V_1_reg_2069                      |    9|          2|   32|         64|
    |acc_23_V_1_be_reg_10276                  |    9|          2|   32|         64|
    |acc_23_V_1_reg_2057                      |    9|          2|   32|         64|
    |acc_24_V_1_be_reg_10078                  |    9|          2|   32|         64|
    |acc_24_V_1_reg_2045                      |    9|          2|   32|         64|
    |acc_25_V_1_be_reg_9880                   |    9|          2|   32|         64|
    |acc_25_V_1_reg_2033                      |    9|          2|   32|         64|
    |acc_26_V_1_be_reg_9682                   |    9|          2|   32|         64|
    |acc_26_V_1_reg_2021                      |    9|          2|   32|         64|
    |acc_27_V_1_be_reg_9484                   |    9|          2|   32|         64|
    |acc_27_V_1_reg_2009                      |    9|          2|   32|         64|
    |acc_28_V_1_be_reg_9286                   |    9|          2|   32|         64|
    |acc_28_V_1_reg_1997                      |    9|          2|   32|         64|
    |acc_29_V_1_be_reg_9088                   |    9|          2|   32|         64|
    |acc_29_V_1_reg_1985                      |    9|          2|   32|         64|
    |acc_2_V_1_be_reg_14434                   |    9|          2|   32|         64|
    |acc_2_V_1_reg_2309                       |    9|          2|   32|         64|
    |acc_30_V_1_be_reg_8890                   |    9|          2|   32|         64|
    |acc_30_V_1_reg_1973                      |    9|          2|   32|         64|
    |acc_31_V_1_be_reg_8692                   |    9|          2|   32|         64|
    |acc_31_V_1_reg_1961                      |    9|          2|   32|         64|
    |acc_32_V_1_be_reg_8494                   |    9|          2|   32|         64|
    |acc_32_V_1_reg_1949                      |    9|          2|   32|         64|
    |acc_33_V_1_be_reg_8296                   |    9|          2|   32|         64|
    |acc_33_V_1_reg_1937                      |    9|          2|   32|         64|
    |acc_34_V_1_be_reg_8098                   |    9|          2|   32|         64|
    |acc_34_V_1_reg_1925                      |    9|          2|   32|         64|
    |acc_35_V_1_be_reg_7900                   |    9|          2|   32|         64|
    |acc_35_V_1_reg_1913                      |    9|          2|   32|         64|
    |acc_36_V_1_be_reg_7702                   |    9|          2|   32|         64|
    |acc_36_V_1_reg_1901                      |    9|          2|   32|         64|
    |acc_37_V_1_be_reg_7504                   |    9|          2|   32|         64|
    |acc_37_V_1_reg_1889                      |    9|          2|   32|         64|
    |acc_38_V_1_be_reg_7306                   |    9|          2|   32|         64|
    |acc_38_V_1_reg_1877                      |    9|          2|   32|         64|
    |acc_39_V_1_be_reg_7108                   |    9|          2|   32|         64|
    |acc_39_V_1_reg_1865                      |    9|          2|   32|         64|
    |acc_3_V_1_be_reg_14236                   |    9|          2|   32|         64|
    |acc_3_V_1_reg_2297                       |    9|          2|   32|         64|
    |acc_40_V_1_be_reg_6910                   |    9|          2|   32|         64|
    |acc_40_V_1_reg_1853                      |    9|          2|   32|         64|
    |acc_41_V_1_be_reg_6712                   |    9|          2|   32|         64|
    |acc_41_V_1_reg_1841                      |    9|          2|   32|         64|
    |acc_42_V_1_be_reg_6514                   |    9|          2|   32|         64|
    |acc_42_V_1_reg_1829                      |    9|          2|   32|         64|
    |acc_43_V_1_be_reg_6316                   |    9|          2|   32|         64|
    |acc_43_V_1_reg_1817                      |    9|          2|   32|         64|
    |acc_44_V_1_be_reg_6118                   |    9|          2|   32|         64|
    |acc_44_V_1_reg_1805                      |    9|          2|   32|         64|
    |acc_45_V_1_be_reg_5920                   |    9|          2|   32|         64|
    |acc_45_V_1_reg_1793                      |    9|          2|   32|         64|
    |acc_46_V_1_be_reg_5722                   |    9|          2|   32|         64|
    |acc_46_V_1_reg_1781                      |    9|          2|   32|         64|
    |acc_47_V_1_be_reg_5524                   |    9|          2|   32|         64|
    |acc_47_V_1_reg_1769                      |    9|          2|   32|         64|
    |acc_48_V_1_be_reg_5326                   |    9|          2|   32|         64|
    |acc_48_V_1_reg_1757                      |    9|          2|   32|         64|
    |acc_49_V_1_be_reg_5128                   |    9|          2|   32|         64|
    |acc_49_V_1_reg_1745                      |    9|          2|   32|         64|
    |acc_4_V_1_be_reg_14038                   |    9|          2|   32|         64|
    |acc_4_V_1_reg_2285                       |    9|          2|   32|         64|
    |acc_50_V_1_be_reg_4930                   |    9|          2|   32|         64|
    |acc_50_V_1_reg_1733                      |    9|          2|   32|         64|
    |acc_51_V_1_be_reg_4732                   |    9|          2|   32|         64|
    |acc_51_V_1_reg_1721                      |    9|          2|   32|         64|
    |acc_52_V_1_be_reg_4534                   |    9|          2|   32|         64|
    |acc_52_V_1_reg_1709                      |    9|          2|   32|         64|
    |acc_53_V_1_be_reg_4336                   |    9|          2|   32|         64|
    |acc_53_V_1_reg_1697                      |    9|          2|   32|         64|
    |acc_54_V_1_be_reg_4138                   |    9|          2|   32|         64|
    |acc_54_V_1_reg_1685                      |    9|          2|   32|         64|
    |acc_55_V_1_be_reg_3940                   |    9|          2|   32|         64|
    |acc_55_V_1_reg_1673                      |    9|          2|   32|         64|
    |acc_56_V_1_be_reg_3742                   |    9|          2|   32|         64|
    |acc_56_V_1_reg_1661                      |    9|          2|   32|         64|
    |acc_57_V_1_be_reg_3544                   |    9|          2|   32|         64|
    |acc_57_V_1_reg_1649                      |    9|          2|   32|         64|
    |acc_58_V_1_be_reg_3346                   |    9|          2|   32|         64|
    |acc_58_V_1_reg_1637                      |    9|          2|   32|         64|
    |acc_59_V_1_be_reg_3148                   |    9|          2|   32|         64|
    |acc_59_V_1_reg_1625                      |    9|          2|   32|         64|
    |acc_5_V_1_be_reg_13840                   |    9|          2|   32|         64|
    |acc_5_V_1_reg_2273                       |    9|          2|   32|         64|
    |acc_60_V_1_be_reg_2950                   |    9|          2|   32|         64|
    |acc_60_V_1_reg_1613                      |    9|          2|   32|         64|
    |acc_61_V_1_be_reg_2752                   |    9|          2|   32|         64|
    |acc_61_V_1_reg_1601                      |    9|          2|   32|         64|
    |acc_62_V_1_be_reg_2554                   |    9|          2|   32|         64|
    |acc_62_V_1_reg_1589                      |    9|          2|   32|         64|
    |acc_63_V_1_be_reg_2356                   |    9|          2|   32|         64|
    |acc_63_V_1_reg_1577                      |    9|          2|   32|         64|
    |acc_6_V_1_be_reg_13642                   |    9|          2|   32|         64|
    |acc_6_V_1_reg_2261                       |    9|          2|   32|         64|
    |acc_7_V_1_be_reg_13444                   |    9|          2|   32|         64|
    |acc_7_V_1_reg_2249                       |    9|          2|   32|         64|
    |acc_8_V_1_be_reg_13246                   |    9|          2|   32|         64|
    |acc_8_V_1_reg_2237                       |    9|          2|   32|         64|
    |acc_9_V_1_be_reg_13048                   |    9|          2|   32|         64|
    |acc_9_V_1_reg_2225                       |    9|          2|   32|         64|
    |ap_NS_fsm                                |  701|        159|    1|        159|
    |ap_done                                  |    9|          2|    1|          2|
    |ap_phi_mux_storemerge_i_phi_fu_15031_p4  |   15|          3|   32|         96|
    |data_V_V_blk_n                           |    9|          2|    1|          2|
    |i_0_i_reg_710                            |    9|          2|    8|         16|
    |im_0_i_i_i_reg_1565                      |    9|          2|    7|         14|
    |in_index_reg_1553                        |    9|          2|   10|         20|
    |layer_in_V_14_address0                   |   15|          3|   10|         30|
    |layer_in_V_14_ce0                        |   15|          3|    1|          3|
    |layer_in_V_14_ce1                        |    9|          2|    1|          2|
    |layer_in_V_14_we0                        |    9|          2|    1|          2|
    |layer_in_V_14_we1                        |    9|          2|    1|          2|
    |out_index_reg_2345                       |    9|          2|    7|         14|
    |pX_11                                    |    9|          2|   32|         64|
    |pY_11                                    |    9|          2|   32|         64|
    |real_start                               |    9|          2|    1|          2|
    |res_V_V_blk_n                            |    9|          2|    1|          2|
    |res_V_V_din                              |  293|         65|   32|       2080|
    |sX_11                                    |    9|          2|   32|         64|
    |tmp_V_1598_reg_1540                      |    9|          2|   32|         64|
    |tmp_V_1599_reg_1527                      |    9|          2|   32|         64|
    |tmp_V_1600_reg_1514                      |    9|          2|   32|         64|
    |tmp_V_1601_reg_1501                      |    9|          2|   32|         64|
    |tmp_V_1602_reg_1488                      |    9|          2|   32|         64|
    |tmp_V_1603_reg_1475                      |    9|          2|   32|         64|
    |tmp_V_1604_reg_1462                      |    9|          2|   32|         64|
    |tmp_V_1605_reg_1449                      |    9|          2|   32|         64|
    |tmp_V_1606_reg_1436                      |    9|          2|   32|         64|
    |tmp_V_1607_reg_1423                      |    9|          2|   32|         64|
    |tmp_V_1608_reg_1410                      |    9|          2|   32|         64|
    |tmp_V_1609_reg_1397                      |    9|          2|   32|         64|
    |tmp_V_1610_reg_1384                      |    9|          2|   32|         64|
    |tmp_V_1611_reg_1371                      |    9|          2|   32|         64|
    |tmp_V_1612_reg_1358                      |    9|          2|   32|         64|
    |tmp_V_1613_reg_1345                      |    9|          2|   32|         64|
    |tmp_V_1614_reg_1332                      |    9|          2|   32|         64|
    |tmp_V_1615_reg_1319                      |    9|          2|   32|         64|
    |tmp_V_1616_reg_1306                      |    9|          2|   32|         64|
    |tmp_V_1617_reg_1293                      |    9|          2|   32|         64|
    |tmp_V_1618_reg_1280                      |    9|          2|   32|         64|
    |tmp_V_1619_reg_1267                      |    9|          2|   32|         64|
    |tmp_V_1620_reg_1254                      |    9|          2|   32|         64|
    |tmp_V_1621_reg_1241                      |    9|          2|   32|         64|
    |tmp_V_1622_reg_1228                      |    9|          2|   32|         64|
    |tmp_V_1623_reg_1215                      |    9|          2|   32|         64|
    |tmp_V_1624_reg_1202                      |    9|          2|   32|         64|
    |tmp_V_1625_reg_1189                      |    9|          2|   32|         64|
    |tmp_V_1626_reg_1176                      |    9|          2|   32|         64|
    |tmp_V_1627_reg_1163                      |    9|          2|   32|         64|
    |tmp_V_1628_reg_1150                      |    9|          2|   32|         64|
    |tmp_V_1629_reg_1137                      |    9|          2|   32|         64|
    |tmp_V_1630_reg_1124                      |    9|          2|   32|         64|
    |tmp_V_1631_reg_1111                      |    9|          2|   32|         64|
    |tmp_V_1632_reg_1098                      |    9|          2|   32|         64|
    |tmp_V_1633_reg_1085                      |    9|          2|   32|         64|
    |tmp_V_1634_reg_1072                      |    9|          2|   32|         64|
    |tmp_V_1635_reg_1059                      |    9|          2|   32|         64|
    |tmp_V_1636_reg_1046                      |    9|          2|   32|         64|
    |tmp_V_1637_reg_1033                      |    9|          2|   32|         64|
    |tmp_V_1638_reg_1020                      |    9|          2|   32|         64|
    |tmp_V_1639_reg_1007                      |    9|          2|   32|         64|
    |tmp_V_1640_reg_994                       |    9|          2|   32|         64|
    |tmp_V_1641_reg_981                       |    9|          2|   32|         64|
    |tmp_V_1642_reg_968                       |    9|          2|   32|         64|
    |tmp_V_1643_reg_955                       |    9|          2|   32|         64|
    |tmp_V_1644_reg_942                       |    9|          2|   32|         64|
    |tmp_V_1645_reg_929                       |    9|          2|   32|         64|
    |tmp_V_1646_reg_916                       |    9|          2|   32|         64|
    |tmp_V_1647_reg_903                       |    9|          2|   32|         64|
    |tmp_V_1648_reg_890                       |    9|          2|   32|         64|
    |tmp_V_1649_reg_877                       |    9|          2|   32|         64|
    |tmp_V_1650_reg_864                       |    9|          2|   32|         64|
    |tmp_V_1651_reg_851                       |    9|          2|   32|         64|
    |tmp_V_1652_reg_838                       |    9|          2|   32|         64|
    |tmp_V_1653_reg_825                       |    9|          2|   32|         64|
    |tmp_V_1654_reg_812                       |    9|          2|   32|         64|
    |tmp_V_1655_reg_799                       |    9|          2|   32|         64|
    |tmp_V_1656_reg_786                       |    9|          2|   32|         64|
    |tmp_V_1657_reg_773                       |    9|          2|   32|         64|
    |tmp_V_1658_reg_760                       |    9|          2|   32|         64|
    |tmp_V_1659_reg_747                       |    9|          2|   32|         64|
    |tmp_V_1660_reg_734                       |    9|          2|   32|         64|
    |tmp_V_1661_reg_721                       |    9|          2|   32|         64|
    |tmpmult_V_address0                       |   15|          3|    6|         18|
    +-----------------------------------------+-----+-----------+-----+-----------+
    |Total                                    | 2908|        648| 6361|      14944|
    +-----------------------------------------+-----+-----------+-----+-----------+

    * Register: 
    +---------------------------------------------------------------------------------+------+----+------+-----------+
    |                                       Name                                      |  FF  | LUT| Bits | Const Bits|
    +---------------------------------------------------------------------------------+------+----+------+-----------+
    |acc_0_V_1_be_reg_14830                                                           |    32|   0|    32|          0|
    |acc_0_V_1_reg_2333                                                               |    32|   0|    32|          0|
    |acc_10_V_1_be_reg_12850                                                          |    32|   0|    32|          0|
    |acc_10_V_1_reg_2213                                                              |    32|   0|    32|          0|
    |acc_11_V_1_be_reg_12652                                                          |    32|   0|    32|          0|
    |acc_11_V_1_reg_2201                                                              |    32|   0|    32|          0|
    |acc_12_V_1_be_reg_12454                                                          |    32|   0|    32|          0|
    |acc_12_V_1_reg_2189                                                              |    32|   0|    32|          0|
    |acc_13_V_1_be_reg_12256                                                          |    32|   0|    32|          0|
    |acc_13_V_1_reg_2177                                                              |    32|   0|    32|          0|
    |acc_14_V_1_be_reg_12058                                                          |    32|   0|    32|          0|
    |acc_14_V_1_reg_2165                                                              |    32|   0|    32|          0|
    |acc_15_V_1_be_reg_11860                                                          |    32|   0|    32|          0|
    |acc_15_V_1_reg_2153                                                              |    32|   0|    32|          0|
    |acc_16_V_1_be_reg_11662                                                          |    32|   0|    32|          0|
    |acc_16_V_1_reg_2141                                                              |    32|   0|    32|          0|
    |acc_17_V_1_be_reg_11464                                                          |    32|   0|    32|          0|
    |acc_17_V_1_reg_2129                                                              |    32|   0|    32|          0|
    |acc_18_V_1_be_reg_11266                                                          |    32|   0|    32|          0|
    |acc_18_V_1_reg_2117                                                              |    32|   0|    32|          0|
    |acc_19_V_1_be_reg_11068                                                          |    32|   0|    32|          0|
    |acc_19_V_1_reg_2105                                                              |    32|   0|    32|          0|
    |acc_1_V_1_be_reg_14632                                                           |    32|   0|    32|          0|
    |acc_1_V_1_reg_2321                                                               |    32|   0|    32|          0|
    |acc_20_V_1_be_reg_10870                                                          |    32|   0|    32|          0|
    |acc_20_V_1_reg_2093                                                              |    32|   0|    32|          0|
    |acc_21_V_1_be_reg_10672                                                          |    32|   0|    32|          0|
    |acc_21_V_1_reg_2081                                                              |    32|   0|    32|          0|
    |acc_22_V_1_be_reg_10474                                                          |    32|   0|    32|          0|
    |acc_22_V_1_reg_2069                                                              |    32|   0|    32|          0|
    |acc_23_V_1_be_reg_10276                                                          |    32|   0|    32|          0|
    |acc_23_V_1_reg_2057                                                              |    32|   0|    32|          0|
    |acc_24_V_1_be_reg_10078                                                          |    32|   0|    32|          0|
    |acc_24_V_1_reg_2045                                                              |    32|   0|    32|          0|
    |acc_25_V_1_be_reg_9880                                                           |    32|   0|    32|          0|
    |acc_25_V_1_reg_2033                                                              |    32|   0|    32|          0|
    |acc_26_V_1_be_reg_9682                                                           |    32|   0|    32|          0|
    |acc_26_V_1_reg_2021                                                              |    32|   0|    32|          0|
    |acc_27_V_1_be_reg_9484                                                           |    32|   0|    32|          0|
    |acc_27_V_1_reg_2009                                                              |    32|   0|    32|          0|
    |acc_28_V_1_be_reg_9286                                                           |    32|   0|    32|          0|
    |acc_28_V_1_reg_1997                                                              |    32|   0|    32|          0|
    |acc_29_V_1_be_reg_9088                                                           |    32|   0|    32|          0|
    |acc_29_V_1_reg_1985                                                              |    32|   0|    32|          0|
    |acc_2_V_1_be_reg_14434                                                           |    32|   0|    32|          0|
    |acc_2_V_1_reg_2309                                                               |    32|   0|    32|          0|
    |acc_30_V_1_be_reg_8890                                                           |    32|   0|    32|          0|
    |acc_30_V_1_reg_1973                                                              |    32|   0|    32|          0|
    |acc_31_V_1_be_reg_8692                                                           |    32|   0|    32|          0|
    |acc_31_V_1_reg_1961                                                              |    32|   0|    32|          0|
    |acc_32_V_1_be_reg_8494                                                           |    32|   0|    32|          0|
    |acc_32_V_1_reg_1949                                                              |    32|   0|    32|          0|
    |acc_33_V_1_be_reg_8296                                                           |    32|   0|    32|          0|
    |acc_33_V_1_reg_1937                                                              |    32|   0|    32|          0|
    |acc_34_V_1_be_reg_8098                                                           |    32|   0|    32|          0|
    |acc_34_V_1_reg_1925                                                              |    32|   0|    32|          0|
    |acc_35_V_1_be_reg_7900                                                           |    32|   0|    32|          0|
    |acc_35_V_1_reg_1913                                                              |    32|   0|    32|          0|
    |acc_36_V_1_be_reg_7702                                                           |    32|   0|    32|          0|
    |acc_36_V_1_reg_1901                                                              |    32|   0|    32|          0|
    |acc_37_V_1_be_reg_7504                                                           |    32|   0|    32|          0|
    |acc_37_V_1_reg_1889                                                              |    32|   0|    32|          0|
    |acc_38_V_1_be_reg_7306                                                           |    32|   0|    32|          0|
    |acc_38_V_1_reg_1877                                                              |    32|   0|    32|          0|
    |acc_39_V_1_be_reg_7108                                                           |    32|   0|    32|          0|
    |acc_39_V_1_reg_1865                                                              |    32|   0|    32|          0|
    |acc_3_V_1_be_reg_14236                                                           |    32|   0|    32|          0|
    |acc_3_V_1_reg_2297                                                               |    32|   0|    32|          0|
    |acc_40_V_1_be_reg_6910                                                           |    32|   0|    32|          0|
    |acc_40_V_1_reg_1853                                                              |    32|   0|    32|          0|
    |acc_41_V_1_be_reg_6712                                                           |    32|   0|    32|          0|
    |acc_41_V_1_reg_1841                                                              |    32|   0|    32|          0|
    |acc_42_V_1_be_reg_6514                                                           |    32|   0|    32|          0|
    |acc_42_V_1_reg_1829                                                              |    32|   0|    32|          0|
    |acc_43_V_1_be_reg_6316                                                           |    32|   0|    32|          0|
    |acc_43_V_1_reg_1817                                                              |    32|   0|    32|          0|
    |acc_44_V_1_be_reg_6118                                                           |    32|   0|    32|          0|
    |acc_44_V_1_reg_1805                                                              |    32|   0|    32|          0|
    |acc_45_V_1_be_reg_5920                                                           |    32|   0|    32|          0|
    |acc_45_V_1_reg_1793                                                              |    32|   0|    32|          0|
    |acc_46_V_1_be_reg_5722                                                           |    32|   0|    32|          0|
    |acc_46_V_1_reg_1781                                                              |    32|   0|    32|          0|
    |acc_47_V_1_be_reg_5524                                                           |    32|   0|    32|          0|
    |acc_47_V_1_reg_1769                                                              |    32|   0|    32|          0|
    |acc_48_V_1_be_reg_5326                                                           |    32|   0|    32|          0|
    |acc_48_V_1_reg_1757                                                              |    32|   0|    32|          0|
    |acc_49_V_1_be_reg_5128                                                           |    32|   0|    32|          0|
    |acc_49_V_1_reg_1745                                                              |    32|   0|    32|          0|
    |acc_4_V_1_be_reg_14038                                                           |    32|   0|    32|          0|
    |acc_4_V_1_reg_2285                                                               |    32|   0|    32|          0|
    |acc_50_V_1_be_reg_4930                                                           |    32|   0|    32|          0|
    |acc_50_V_1_reg_1733                                                              |    32|   0|    32|          0|
    |acc_51_V_1_be_reg_4732                                                           |    32|   0|    32|          0|
    |acc_51_V_1_reg_1721                                                              |    32|   0|    32|          0|
    |acc_52_V_1_be_reg_4534                                                           |    32|   0|    32|          0|
    |acc_52_V_1_reg_1709                                                              |    32|   0|    32|          0|
    |acc_53_V_1_be_reg_4336                                                           |    32|   0|    32|          0|
    |acc_53_V_1_reg_1697                                                              |    32|   0|    32|          0|
    |acc_54_V_1_be_reg_4138                                                           |    32|   0|    32|          0|
    |acc_54_V_1_reg_1685                                                              |    32|   0|    32|          0|
    |acc_55_V_1_be_reg_3940                                                           |    32|   0|    32|          0|
    |acc_55_V_1_reg_1673                                                              |    32|   0|    32|          0|
    |acc_56_V_1_be_reg_3742                                                           |    32|   0|    32|          0|
    |acc_56_V_1_reg_1661                                                              |    32|   0|    32|          0|
    |acc_57_V_1_be_reg_3544                                                           |    32|   0|    32|          0|
    |acc_57_V_1_reg_1649                                                              |    32|   0|    32|          0|
    |acc_58_V_1_be_reg_3346                                                           |    32|   0|    32|          0|
    |acc_58_V_1_reg_1637                                                              |    32|   0|    32|          0|
    |acc_59_V_1_be_reg_3148                                                           |    32|   0|    32|          0|
    |acc_59_V_1_reg_1625                                                              |    32|   0|    32|          0|
    |acc_5_V_1_be_reg_13840                                                           |    32|   0|    32|          0|
    |acc_5_V_1_reg_2273                                                               |    32|   0|    32|          0|
    |acc_60_V_1_be_reg_2950                                                           |    32|   0|    32|          0|
    |acc_60_V_1_reg_1613                                                              |    32|   0|    32|          0|
    |acc_61_V_1_be_reg_2752                                                           |    32|   0|    32|          0|
    |acc_61_V_1_reg_1601                                                              |    32|   0|    32|          0|
    |acc_62_V_1_be_reg_2554                                                           |    32|   0|    32|          0|
    |acc_62_V_1_reg_1589                                                              |    32|   0|    32|          0|
    |acc_63_V_1_be_reg_2356                                                           |    32|   0|    32|          0|
    |acc_63_V_1_reg_1577                                                              |    32|   0|    32|          0|
    |acc_6_V_1_be_reg_13642                                                           |    32|   0|    32|          0|
    |acc_6_V_1_reg_2261                                                               |    32|   0|    32|          0|
    |acc_7_V_1_be_reg_13444                                                           |    32|   0|    32|          0|
    |acc_7_V_1_reg_2249                                                               |    32|   0|    32|          0|
    |acc_8_V_1_be_reg_13246                                                           |    32|   0|    32|          0|
    |acc_8_V_1_reg_2237                                                               |    32|   0|    32|          0|
    |acc_9_V_1_be_reg_13048                                                           |    32|   0|    32|          0|
    |acc_9_V_1_reg_2225                                                               |    32|   0|    32|          0|
    |and_ln176_14_reg_16305                                                           |     1|   0|     1|          0|
    |ap_CS_fsm                                                                        |   158|   0|   158|          0|
    |ap_done_reg                                                                      |     1|   0|     1|          0|
    |grp_cnnshift_arr_ap_fixed_ap_fixed_32_16_5_3_0_config22_s_fu_15038_ap_start_reg  |     1|   0|     1|          0|
    |i_0_i_reg_710                                                                    |     8|   0|     8|          0|
    |i_reg_15943                                                                      |     8|   0|     8|          0|
    |icmp_ln176_19_reg_16288                                                          |     1|   0|     1|          0|
    |icmp_ln176_reg_16278                                                             |     1|   0|     1|          0|
    |im_0_i_i_i_reg_1565                                                              |     7|   0|     7|          0|
    |im_9_reg_16368                                                                   |     7|   0|     7|          0|
    |im_reg_16335                                                                     |     7|   0|     7|          0|
    |in_index_reg_1553                                                                |    10|   0|    10|          0|
    |ir_reg_16312                                                                     |    10|   0|    10|          0|
    |layer_in_V_14_load_reg_16327                                                     |    32|   0|    32|          0|
    |op_V_assign_7_reg_16360                                                          |    32|   0|    32|          0|
    |out_index_reg_2345                                                               |     7|   0|     7|          0|
    |pX_11                                                                            |    32|   0|    32|          0|
    |pX_11_load_reg_16299                                                             |    32|   0|    32|          0|
    |pY_11                                                                            |    32|   0|    32|          0|
    |pY_11_load_reg_16293                                                             |    32|   0|    32|          0|
    |sX_11                                                                            |    32|   0|    32|          0|
    |sX_11_load_reg_16273                                                             |    32|   0|    32|          0|
    |sY_11                                                                            |    32|   0|    32|          0|
    |sY_11_load_reg_16283                                                             |    32|   0|    32|          0|
    |start_once_reg                                                                   |     1|   0|     1|          0|
    |tmp_V_1598_reg_1540                                                              |    32|   0|    32|          0|
    |tmp_V_1599_reg_1527                                                              |    32|   0|    32|          0|
    |tmp_V_1600_reg_1514                                                              |    32|   0|    32|          0|
    |tmp_V_1601_reg_1501                                                              |    32|   0|    32|          0|
    |tmp_V_1602_reg_1488                                                              |    32|   0|    32|          0|
    |tmp_V_1603_reg_1475                                                              |    32|   0|    32|          0|
    |tmp_V_1604_reg_1462                                                              |    32|   0|    32|          0|
    |tmp_V_1605_reg_1449                                                              |    32|   0|    32|          0|
    |tmp_V_1606_reg_1436                                                              |    32|   0|    32|          0|
    |tmp_V_1607_reg_1423                                                              |    32|   0|    32|          0|
    |tmp_V_1608_reg_1410                                                              |    32|   0|    32|          0|
    |tmp_V_1609_reg_1397                                                              |    32|   0|    32|          0|
    |tmp_V_1610_reg_1384                                                              |    32|   0|    32|          0|
    |tmp_V_1611_reg_1371                                                              |    32|   0|    32|          0|
    |tmp_V_1612_reg_1358                                                              |    32|   0|    32|          0|
    |tmp_V_1613_reg_1345                                                              |    32|   0|    32|          0|
    |tmp_V_1614_reg_1332                                                              |    32|   0|    32|          0|
    |tmp_V_1615_reg_1319                                                              |    32|   0|    32|          0|
    |tmp_V_1616_reg_1306                                                              |    32|   0|    32|          0|
    |tmp_V_1617_reg_1293                                                              |    32|   0|    32|          0|
    |tmp_V_1618_reg_1280                                                              |    32|   0|    32|          0|
    |tmp_V_1619_reg_1267                                                              |    32|   0|    32|          0|
    |tmp_V_1620_reg_1254                                                              |    32|   0|    32|          0|
    |tmp_V_1621_reg_1241                                                              |    32|   0|    32|          0|
    |tmp_V_1622_reg_1228                                                              |    32|   0|    32|          0|
    |tmp_V_1623_reg_1215                                                              |    32|   0|    32|          0|
    |tmp_V_1624_reg_1202                                                              |    32|   0|    32|          0|
    |tmp_V_1625_reg_1189                                                              |    32|   0|    32|          0|
    |tmp_V_1626_reg_1176                                                              |    32|   0|    32|          0|
    |tmp_V_1627_reg_1163                                                              |    32|   0|    32|          0|
    |tmp_V_1628_reg_1150                                                              |    32|   0|    32|          0|
    |tmp_V_1629_reg_1137                                                              |    32|   0|    32|          0|
    |tmp_V_1630_reg_1124                                                              |    32|   0|    32|          0|
    |tmp_V_1631_reg_1111                                                              |    32|   0|    32|          0|
    |tmp_V_1632_reg_1098                                                              |    32|   0|    32|          0|
    |tmp_V_1633_reg_1085                                                              |    32|   0|    32|          0|
    |tmp_V_1634_reg_1072                                                              |    32|   0|    32|          0|
    |tmp_V_1635_reg_1059                                                              |    32|   0|    32|          0|
    |tmp_V_1636_reg_1046                                                              |    32|   0|    32|          0|
    |tmp_V_1637_reg_1033                                                              |    32|   0|    32|          0|
    |tmp_V_1638_reg_1020                                                              |    32|   0|    32|          0|
    |tmp_V_1639_reg_1007                                                              |    32|   0|    32|          0|
    |tmp_V_1640_reg_994                                                               |    32|   0|    32|          0|
    |tmp_V_1641_reg_981                                                               |    32|   0|    32|          0|
    |tmp_V_1642_reg_968                                                               |    32|   0|    32|          0|
    |tmp_V_1643_reg_955                                                               |    32|   0|    32|          0|
    |tmp_V_1644_reg_942                                                               |    32|   0|    32|          0|
    |tmp_V_1645_reg_929                                                               |    32|   0|    32|          0|
    |tmp_V_1646_reg_916                                                               |    32|   0|    32|          0|
    |tmp_V_1647_reg_903                                                               |    32|   0|    32|          0|
    |tmp_V_1648_reg_890                                                               |    32|   0|    32|          0|
    |tmp_V_1649_reg_877                                                               |    32|   0|    32|          0|
    |tmp_V_1650_reg_864                                                               |    32|   0|    32|          0|
    |tmp_V_1651_reg_851                                                               |    32|   0|    32|          0|
    |tmp_V_1652_reg_838                                                               |    32|   0|    32|          0|
    |tmp_V_1653_reg_825                                                               |    32|   0|    32|          0|
    |tmp_V_1654_reg_812                                                               |    32|   0|    32|          0|
    |tmp_V_1655_reg_799                                                               |    32|   0|    32|          0|
    |tmp_V_1656_reg_786                                                               |    32|   0|    32|          0|
    |tmp_V_1657_reg_773                                                               |    32|   0|    32|          0|
    |tmp_V_1658_reg_760                                                               |    32|   0|    32|          0|
    |tmp_V_1659_reg_747                                                               |    32|   0|    32|          0|
    |tmp_V_1660_reg_734                                                               |    32|   0|    32|          0|
    |tmp_V_1661_reg_721                                                               |    32|   0|    32|          0|
    |tmp_V_4377_reg_15953                                                             |    32|   0|    32|          0|
    |tmp_V_4378_reg_15958                                                             |    32|   0|    32|          0|
    |tmp_V_4379_reg_15963                                                             |    32|   0|    32|          0|
    |tmp_V_4380_reg_15968                                                             |    32|   0|    32|          0|
    |tmp_V_4381_reg_15973                                                             |    32|   0|    32|          0|
    |tmp_V_4382_reg_15978                                                             |    32|   0|    32|          0|
    |tmp_V_4383_reg_15983                                                             |    32|   0|    32|          0|
    |tmp_V_4384_reg_15988                                                             |    32|   0|    32|          0|
    |tmp_V_4385_reg_15993                                                             |    32|   0|    32|          0|
    |tmp_V_4386_reg_15998                                                             |    32|   0|    32|          0|
    |tmp_V_4387_reg_16003                                                             |    32|   0|    32|          0|
    |tmp_V_4388_reg_16008                                                             |    32|   0|    32|          0|
    |tmp_V_4389_reg_16013                                                             |    32|   0|    32|          0|
    |tmp_V_4390_reg_16018                                                             |    32|   0|    32|          0|
    |tmp_V_4391_reg_16023                                                             |    32|   0|    32|          0|
    |tmp_V_4392_reg_16028                                                             |    32|   0|    32|          0|
    |tmp_V_4393_reg_16033                                                             |    32|   0|    32|          0|
    |tmp_V_4394_reg_16038                                                             |    32|   0|    32|          0|
    |tmp_V_4395_reg_16043                                                             |    32|   0|    32|          0|
    |tmp_V_4396_reg_16048                                                             |    32|   0|    32|          0|
    |tmp_V_4397_reg_16053                                                             |    32|   0|    32|          0|
    |tmp_V_4398_reg_16058                                                             |    32|   0|    32|          0|
    |tmp_V_4399_reg_16063                                                             |    32|   0|    32|          0|
    |tmp_V_4400_reg_16068                                                             |    32|   0|    32|          0|
    |tmp_V_4401_reg_16073                                                             |    32|   0|    32|          0|
    |tmp_V_4402_reg_16078                                                             |    32|   0|    32|          0|
    |tmp_V_4403_reg_16083                                                             |    32|   0|    32|          0|
    |tmp_V_4404_reg_16088                                                             |    32|   0|    32|          0|
    |tmp_V_4405_reg_16093                                                             |    32|   0|    32|          0|
    |tmp_V_4406_reg_16098                                                             |    32|   0|    32|          0|
    |tmp_V_4407_reg_16103                                                             |    32|   0|    32|          0|
    |tmp_V_4408_reg_16108                                                             |    32|   0|    32|          0|
    |tmp_V_4409_reg_16113                                                             |    32|   0|    32|          0|
    |tmp_V_4410_reg_16118                                                             |    32|   0|    32|          0|
    |tmp_V_4411_reg_16123                                                             |    32|   0|    32|          0|
    |tmp_V_4412_reg_16128                                                             |    32|   0|    32|          0|
    |tmp_V_4413_reg_16133                                                             |    32|   0|    32|          0|
    |tmp_V_4414_reg_16138                                                             |    32|   0|    32|          0|
    |tmp_V_4415_reg_16143                                                             |    32|   0|    32|          0|
    |tmp_V_4416_reg_16148                                                             |    32|   0|    32|          0|
    |tmp_V_4417_reg_16153                                                             |    32|   0|    32|          0|
    |tmp_V_4418_reg_16158                                                             |    32|   0|    32|          0|
    |tmp_V_4419_reg_16163                                                             |    32|   0|    32|          0|
    |tmp_V_4420_reg_16168                                                             |    32|   0|    32|          0|
    |tmp_V_4421_reg_16173                                                             |    32|   0|    32|          0|
    |tmp_V_4422_reg_16178                                                             |    32|   0|    32|          0|
    |tmp_V_4423_reg_16183                                                             |    32|   0|    32|          0|
    |tmp_V_4424_reg_16188                                                             |    32|   0|    32|          0|
    |tmp_V_4425_reg_16193                                                             |    32|   0|    32|          0|
    |tmp_V_4426_reg_16198                                                             |    32|   0|    32|          0|
    |tmp_V_4427_reg_16203                                                             |    32|   0|    32|          0|
    |tmp_V_4428_reg_16208                                                             |    32|   0|    32|          0|
    |tmp_V_4429_reg_16213                                                             |    32|   0|    32|          0|
    |tmp_V_4430_reg_16218                                                             |    32|   0|    32|          0|
    |tmp_V_4431_reg_16223                                                             |    32|   0|    32|          0|
    |tmp_V_4432_reg_16228                                                             |    32|   0|    32|          0|
    |tmp_V_4433_reg_16233                                                             |    32|   0|    32|          0|
    |tmp_V_4434_reg_16238                                                             |    32|   0|    32|          0|
    |tmp_V_4435_reg_16243                                                             |    32|   0|    32|          0|
    |tmp_V_4436_reg_16248                                                             |    32|   0|    32|          0|
    |tmp_V_4437_reg_16253                                                             |    32|   0|    32|          0|
    |tmp_V_4438_reg_16258                                                             |    32|   0|    32|          0|
    |tmp_V_4439_reg_16263                                                             |    32|   0|    32|          0|
    |tmp_V_reg_15948                                                                  |    32|   0|    32|          0|
    |tmp_s_reg_16345                                                                  |     6|   0|     6|          0|
    |tmpdata_V_reg_16268                                                              |  2048|   0|  2048|          0|
    |trunc_ln1265_reg_16373                                                           |     6|   0|     6|          0|
    |trunc_ln366_reg_16355                                                            |    32|   0|    32|          0|
    |zext_ln366_17_reg_16322                                                          |    10|   0|    13|          3|
    +---------------------------------------------------------------------------------+------+----+------+-----------+
    |Total                                                                            | 10842|   0| 10845|          3|
    +---------------------------------------------------------------------------------+------+----+------+-----------+



================================================================
== Interface
================================================================
* Summary: 
+--------------------+-----+------+------------+--------------------------------------------------------+--------------+
|      RTL Ports     | Dir | Bits |  Protocol  |                      Source Object                     |    C Type    |
+--------------------+-----+------+------------+--------------------------------------------------------+--------------+
|ap_clk              |  in |     1| ap_ctrl_hs | conv_2d_cl_me<ap_fixed,ap_fixed<32,16,5,3,0>,config22> | return value |
|ap_rst              |  in |     1| ap_ctrl_hs | conv_2d_cl_me<ap_fixed,ap_fixed<32,16,5,3,0>,config22> | return value |
|ap_start            |  in |     1| ap_ctrl_hs | conv_2d_cl_me<ap_fixed,ap_fixed<32,16,5,3,0>,config22> | return value |
|start_full_n        |  in |     1| ap_ctrl_hs | conv_2d_cl_me<ap_fixed,ap_fixed<32,16,5,3,0>,config22> | return value |
|ap_done             | out |     1| ap_ctrl_hs | conv_2d_cl_me<ap_fixed,ap_fixed<32,16,5,3,0>,config22> | return value |
|ap_continue         |  in |     1| ap_ctrl_hs | conv_2d_cl_me<ap_fixed,ap_fixed<32,16,5,3,0>,config22> | return value |
|ap_idle             | out |     1| ap_ctrl_hs | conv_2d_cl_me<ap_fixed,ap_fixed<32,16,5,3,0>,config22> | return value |
|ap_ready            | out |     1| ap_ctrl_hs | conv_2d_cl_me<ap_fixed,ap_fixed<32,16,5,3,0>,config22> | return value |
|start_out           | out |     1| ap_ctrl_hs | conv_2d_cl_me<ap_fixed,ap_fixed<32,16,5,3,0>,config22> | return value |
|start_write         | out |     1| ap_ctrl_hs | conv_2d_cl_me<ap_fixed,ap_fixed<32,16,5,3,0>,config22> | return value |
|data_V_V_dout       |  in |    32|   ap_fifo  |                        data_V_V                        |    pointer   |
|data_V_V_empty_n    |  in |     1|   ap_fifo  |                        data_V_V                        |    pointer   |
|data_V_V_read       | out |     1|   ap_fifo  |                        data_V_V                        |    pointer   |
|res_V_V_din         | out |    32|   ap_fifo  |                         res_V_V                        |    pointer   |
|res_V_V_full_n      |  in |     1|   ap_fifo  |                         res_V_V                        |    pointer   |
|res_V_V_write       | out |     1|   ap_fifo  |                         res_V_V                        |    pointer   |
|weights_V_address0  | out |    10|  ap_memory |                        weights_V                       |     array    |
|weights_V_ce0       | out |     1|  ap_memory |                        weights_V                       |     array    |
|weights_V_q0        |  in |  2048|  ap_memory |                        weights_V                       |     array    |
+--------------------+-----+------+------------+--------------------------------------------------------+--------------+

