

================================================================
== Vivado HLS Report for 'leaky_relu_me_ap_fixed_ap_fixed_LeakyReLU_config16_575'
================================================================
* Date:           Fri Mar 25 17:58:22 2022

* Version:        2019.2 (Build 2704478 on Wed Nov 06 22:10:23 MST 2019)
* Project:        myproject_prj
* Solution:       solution1
* Product family: zynquplus
* Target device:  xczu9eg-ffvb1156-2-e


================================================================
== Performance Estimates
================================================================
+ Timing: 
    * Summary: 
    +--------+---------+----------+------------+
    |  Clock |  Target | Estimated| Uncertainty|
    +--------+---------+----------+------------+
    |ap_clk  | 5.00 ns | 3.869 ns |   0.62 ns  |
    +--------+---------+----------+------------+

+ Latency: 
    * Summary: 
    +---------+---------+----------+----------+-------+-------+---------+
    |  Latency (cycles) |  Latency (absolute) |    Interval   | Pipeline|
    |   min   |   max   |    min   |    max   |  min  |  max  |   Type  |
    +---------+---------+----------+----------+-------+-------+---------+
    |    24196|    24196| 0.121 ms | 0.121 ms |  24196|  24196|   none  |
    +---------+---------+----------+----------+-------+-------+---------+

    + Detail: 
        * Instance: 
        N/A

        * Loop: 
        +--------------------+---------+---------+----------+-----------+-----------+-------+----------+
        |                    |  Latency (cycles) | Iteration|  Initiation Interval  |  Trip |          |
        |      Loop Name     |   min   |   max   |  Latency |  achieved |   target  | Count | Pipelined|
        +--------------------+---------+---------+----------+-----------+-----------+-------+----------+
        |- LeakyReLUActLoop  |    24194|    24194|         4|          1|          1|  24192|    yes   |
        +--------------------+---------+---------+----------+-----------+-----------+-------+----------+



================================================================
== Utilization Estimates
================================================================
* Summary: 
+-----------------+---------+-------+--------+--------+-----+
|       Name      | BRAM_18K| DSP48E|   FF   |   LUT  | URAM|
+-----------------+---------+-------+--------+--------+-----+
|DSP              |        -|      -|       -|       -|    -|
|Expression       |        -|      2|       0|     119|    -|
|FIFO             |        -|      -|       -|       -|    -|
|Instance         |        -|      -|       -|       -|    -|
|Memory           |        -|      -|       -|       -|    -|
|Multiplexer      |        -|      -|       -|      84|    -|
|Register         |        0|      -|     154|      32|    -|
+-----------------+---------+-------+--------+--------+-----+
|Total            |        0|      2|     154|     235|    0|
+-----------------+---------+-------+--------+--------+-----+
|Available        |     1824|   2520|  548160|  274080|    0|
+-----------------+---------+-------+--------+--------+-----+
|Utilization (%)  |        0|   ~0  |   ~0   |   ~0   |    0|
+-----------------+---------+-------+--------+--------+-----+

+ Detail: 
    * Instance: 
    N/A

    * DSP48E: 
    N/A

    * Memory: 
    N/A

    * FIFO: 
    N/A

    * Expression: 
    +----------------------------------+----------+-------+---+----+------------+------------+
    |           Variable Name          | Operation| DSP48E| FF| LUT| Bitwidth P0| Bitwidth P1|
    +----------------------------------+----------+-------+---+----+------------+------------+
    |r_V_fu_119_p2                     |     *    |      2|  0|  20|          32|          15|
    |i_fu_104_p2                       |     +    |      0|  0|  22|          15|           1|
    |ap_block_state3_pp0_stage0_iter1  |    and   |      0|  0|   2|           1|           1|
    |ap_block_state5_pp0_stage0_iter3  |    and   |      0|  0|   2|           1|           1|
    |icmp_ln1494_fu_110_p2             |   icmp   |      0|  0|  20|          32|           1|
    |icmp_ln440_fu_98_p2               |   icmp   |      0|  0|  13|          15|          15|
    |ap_block_pp0_stage0_01001         |    or    |      0|  0|   2|           1|           1|
    |ap_block_state1                   |    or    |      0|  0|   2|           1|           1|
    |out_data_V_fu_135_p3              |  select  |      0|  0|  32|           1|          32|
    |ap_enable_pp0                     |    xor   |      0|  0|   2|           1|           2|
    |ap_enable_reg_pp0_iter1           |    xor   |      0|  0|   2|           2|           1|
    +----------------------------------+----------+-------+---+----+------------+------------+
    |Total                             |          |      2|  0| 119|         102|          71|
    +----------------------------------+----------+-------+---+----+------------+------------+

    * Multiplexer: 
    +-------------------------+----+-----------+-----+-----------+
    |           Name          | LUT| Input Size| Bits| Total Bits|
    +-------------------------+----+-----------+-----+-----------+
    |ap_NS_fsm                |  21|          4|    1|          4|
    |ap_done                  |   9|          2|    1|          2|
    |ap_enable_reg_pp0_iter1  |   9|          2|    1|          2|
    |ap_enable_reg_pp0_iter3  |   9|          2|    1|          2|
    |data_V_V_blk_n           |   9|          2|    1|          2|
    |i_0_reg_87               |   9|          2|   15|         30|
    |real_start               |   9|          2|    1|          2|
    |res_V_V_blk_n            |   9|          2|    1|          2|
    +-------------------------+----+-----------+-----+-----------+
    |Total                    |  84|         18|   22|         46|
    +-------------------------+----+-----------+-----+-----------+

    * Register: 
    +-------------------------+----+----+-----+-----------+
    |           Name          | FF | LUT| Bits| Const Bits|
    +-------------------------+----+----+-----+-----------+
    |ap_CS_fsm                |   3|   0|    3|          0|
    |ap_done_reg              |   1|   0|    1|          0|
    |ap_enable_reg_pp0_iter0  |   1|   0|    1|          0|
    |ap_enable_reg_pp0_iter1  |   1|   0|    1|          0|
    |ap_enable_reg_pp0_iter2  |   1|   0|    1|          0|
    |ap_enable_reg_pp0_iter3  |   1|   0|    1|          0|
    |i_0_reg_87               |  15|   0|   15|          0|
    |icmp_ln1494_reg_156      |   1|   0|    1|          0|
    |icmp_ln440_reg_141       |   1|   0|    1|          0|
    |out_data_V_reg_161       |  32|   0|   32|          0|
    |start_once_reg           |   1|   0|    1|          0|
    |tmp_V_reg_150            |  32|   0|   32|          0|
    |icmp_ln440_reg_141       |  64|  32|    1|          0|
    +-------------------------+----+----+-----+-----------+
    |Total                    | 154|  32|   91|          0|
    +-------------------------+----+----+-----+-----------+



================================================================
== Interface
================================================================
* Summary: 
+------------------+-----+-----+------------+--------------------------------------------------------+--------------+
|     RTL Ports    | Dir | Bits|  Protocol  |                      Source Object                     |    C Type    |
+------------------+-----+-----+------------+--------------------------------------------------------+--------------+
|ap_clk            |  in |    1| ap_ctrl_hs | leaky_relu_me<ap_fixed,ap_fixed,LeakyReLU_config16>575 | return value |
|ap_rst            |  in |    1| ap_ctrl_hs | leaky_relu_me<ap_fixed,ap_fixed,LeakyReLU_config16>575 | return value |
|ap_start          |  in |    1| ap_ctrl_hs | leaky_relu_me<ap_fixed,ap_fixed,LeakyReLU_config16>575 | return value |
|start_full_n      |  in |    1| ap_ctrl_hs | leaky_relu_me<ap_fixed,ap_fixed,LeakyReLU_config16>575 | return value |
|ap_done           | out |    1| ap_ctrl_hs | leaky_relu_me<ap_fixed,ap_fixed,LeakyReLU_config16>575 | return value |
|ap_continue       |  in |    1| ap_ctrl_hs | leaky_relu_me<ap_fixed,ap_fixed,LeakyReLU_config16>575 | return value |
|ap_idle           | out |    1| ap_ctrl_hs | leaky_relu_me<ap_fixed,ap_fixed,LeakyReLU_config16>575 | return value |
|ap_ready          | out |    1| ap_ctrl_hs | leaky_relu_me<ap_fixed,ap_fixed,LeakyReLU_config16>575 | return value |
|start_out         | out |    1| ap_ctrl_hs | leaky_relu_me<ap_fixed,ap_fixed,LeakyReLU_config16>575 | return value |
|start_write       | out |    1| ap_ctrl_hs | leaky_relu_me<ap_fixed,ap_fixed,LeakyReLU_config16>575 | return value |
|data_V_V_dout     |  in |   32|   ap_fifo  |                        data_V_V                        |    pointer   |
|data_V_V_empty_n  |  in |    1|   ap_fifo  |                        data_V_V                        |    pointer   |
|data_V_V_read     | out |    1|   ap_fifo  |                        data_V_V                        |    pointer   |
|res_V_V_din       | out |   32|   ap_fifo  |                         res_V_V                        |    pointer   |
|res_V_V_full_n    |  in |    1|   ap_fifo  |                         res_V_V                        |    pointer   |
|res_V_V_write     | out |    1|   ap_fifo  |                         res_V_V                        |    pointer   |
+------------------+-----+-----+------------+--------------------------------------------------------+--------------+

