

================================================================
== Vivado HLS Report for 'normalize_me_ap_fixed_ap_fixed_32_16_5_3_0_config3_s'
================================================================
* Date:           Fri Mar 25 16:03:32 2022

* Version:        2019.2 (Build 2704478 on Wed Nov 06 22:10:23 MST 2019)
* Project:        myproject_prj
* Solution:       solution1
* Product family: zynquplus
* Target device:  xczu9eg-ffvb1156-2-e


================================================================
== Performance Estimates
================================================================
+ Timing: 
    * Summary: 
    +--------+---------+----------+------------+
    |  Clock |  Target | Estimated| Uncertainty|
    +--------+---------+----------+------------+
    |ap_clk  | 5.00 ns | 3.812 ns |   0.62 ns  |
    +--------+---------+----------+------------+

+ Latency: 
    * Summary: 
    +---------+---------+----------+----------+-------+-------+---------+
    |  Latency (cycles) |  Latency (absolute) |    Interval   | Pipeline|
    |   min   |   max   |    min   |    max   |  min  |  max  |   Type  |
    +---------+---------+----------+----------+-------+-------+---------+
    |    36961|    36961| 0.185 ms | 0.185 ms |  36961|  36961|   none  |
    +---------+---------+----------+----------+-------+-------+---------+

    + Detail: 
        * Instance: 
        N/A

        * Loop: 
        +-----------------+---------+---------+----------+-----------+-----------+-------+----------+
        |                 |  Latency (cycles) | Iteration|  Initiation Interval  |  Trip |          |
        |    Loop Name    |   min   |   max   |  Latency |  achieved |   target  | Count | Pipelined|
        +-----------------+---------+---------+----------+-----------+-----------+-------+----------+
        |- BatchNormLoop  |    36960|    36960|         3|          -|          -|  12320|    no    |
        +-----------------+---------+---------+----------+-----------+-----------+-------+----------+

============================================================
+ Verbose Summary: Synthesis Manager
============================================================
InlineROM: 1
ExposeGlobal: 0
============================================================
+ Verbose Summary: CDFG Model
============================================================
IsTopModel: 0
ResetActiveHigh: 1
IsCombinational: 2
IsDatapathOnly: 0
HasWiredReturn: 1
HasMFsm: 0
HasVarLatency: 1
IsPipeline: 0
IsRtlPipelined: 0
IsInstanceOverlapped: 0
IsDontTouch: 0
HasImplIP: 0
IsGatedGlobalClock: 0


============================================================
+ Verbose Summary: Schedule
============================================================
* Number of FSM states : 4
* Pipeline : 0
* Dataflow Pipeline: 0

* FSM state transitions: 
1 --> 2 
2 --> 3 
3 --> 4 
4 --> 2 

* FSM state operations: 

State 1 <SV = 0> <Delay = 0.65>
ST_1 : Operation 5 [1/1] (0.00ns)   --->   "call void (...)* @_ssdm_op_SpecInterface(i32* %res_V_V, [8 x i8]* @ap_fifo_str, i32 0, i32 0, [1 x i8]* @p_str644, i32 0, i32 0, [1 x i8]* @p_str645, [1 x i8]* @p_str646, [1 x i8]* @p_str647, i32 2, i32 2, i32 16, i32 16, [1 x i8]* @p_str648, [1 x i8]* @p_str649)"   --->   Operation 5 'specinterface' <Predicate = true> <Delay = 0.00>
ST_1 : Operation 6 [1/1] (0.00ns)   --->   "call void (...)* @_ssdm_op_SpecInterface(i32* %data_V_V, [8 x i8]* @ap_fifo_str, i32 0, i32 0, [1 x i8]* @p_str637, i32 0, i32 0, [1 x i8]* @p_str638, [1 x i8]* @p_str639, [1 x i8]* @p_str640, i32 2, i32 2, i32 16, i32 16, [1 x i8]* @p_str641, [1 x i8]* @p_str642)"   --->   Operation 6 'specinterface' <Predicate = true> <Delay = 0.00>
ST_1 : Operation 7 [1/1] (0.00ns)   --->   "call void (...)* @_ssdm_op_SpecResourceLimit(i32 7, [4 x i8]* @p_str193, [1 x i8]* @p_str28, [1 x i8]* @p_str28, [1 x i8]* @p_str28) nounwind" [firmware/nnet_utils/nnet_mult.h:81->firmware/nnet_utils/nnet_batchnorm_stream.h:46]   --->   Operation 7 'specresourcelimit' <Predicate = true> <Delay = 0.00>
ST_1 : Operation 8 [1/1] (0.65ns)   --->   "br label %1" [firmware/nnet_utils/nnet_batchnorm_stream.h:48]   --->   Operation 8 'br' <Predicate = true> <Delay = 0.65>

State 2 <SV = 1> <Delay = 1.83>
ST_2 : Operation 9 [1/1] (0.00ns)   --->   "%i_0 = phi i14 [ 0, %0 ], [ %i, %BatchNormLoop ]"   --->   Operation 9 'phi' 'i_0' <Predicate = true> <Delay = 0.00>
ST_2 : Operation 10 [1/1] (1.03ns)   --->   "%icmp_ln48 = icmp eq i14 %i_0, -4064" [firmware/nnet_utils/nnet_batchnorm_stream.h:48]   --->   Operation 10 'icmp' 'icmp_ln48' <Predicate = true> <Delay = 1.03> <Core = "Cmp">   --->   Core 25 'Cmp' <Latency = 0> <II = 1> <Delay = 1.03> <FuncUnit> <Opcode : 'icmp'> <InPorts = 2> <OutPorts = 1>
ST_2 : Operation 11 [1/1] (0.00ns)   --->   "%empty = call i32 (...)* @_ssdm_op_SpecLoopTripCount(i64 12320, i64 12320, i64 12320)"   --->   Operation 11 'speclooptripcount' 'empty' <Predicate = true> <Delay = 0.00>
ST_2 : Operation 12 [1/1] (0.83ns)   --->   "%i = add i14 %i_0, 1" [firmware/nnet_utils/nnet_batchnorm_stream.h:48]   --->   Operation 12 'add' 'i' <Predicate = true> <Delay = 0.83> <Core = "AddSub">   --->   Core 14 'AddSub' <Latency = 0> <II = 1> <Delay = 1.01> <FuncUnit> <Opcode : 'add' 'sub'> <InPorts = 2> <OutPorts = 1>
ST_2 : Operation 13 [1/1] (0.00ns)   --->   "br i1 %icmp_ln48, label %2, label %BatchNormLoop" [firmware/nnet_utils/nnet_batchnorm_stream.h:48]   --->   Operation 13 'br' <Predicate = true> <Delay = 0.00>
ST_2 : Operation 14 [1/1] (1.83ns)   --->   "%tmp_V = call i32 @_ssdm_op_Read.ap_fifo.volatile.i32P(i32* %data_V_V)" [firmware/nnet_utils/nnet_batchnorm_stream.h:51]   --->   Operation 14 'read' 'tmp_V' <Predicate = (!icmp_ln48)> <Delay = 1.83> <Core = "FIFO">   --->   Core 32 'FIFO' <Latency = 0> <II = 1> <Delay = 1.83> <Storage> <Opcode : 'read' 'write' 'nbread' 'nbwrite'> <Ports = 0> <Width = 32> <Depth = 1> <FIFO>
ST_2 : Operation 15 [1/1] (0.00ns)   --->   "%trunc_ln63 = trunc i14 %i_0 to i2" [firmware/nnet_utils/nnet_batchnorm_stream.h:63]   --->   Operation 15 'trunc' 'trunc_ln63' <Predicate = (!icmp_ln48)> <Delay = 0.00>
ST_2 : Operation 16 [1/1] (0.00ns)   --->   "ret void" [firmware/nnet_utils/nnet_batchnorm_stream.h:68]   --->   Operation 16 'ret' <Predicate = (icmp_ln48)> <Delay = 0.00>

State 3 <SV = 2> <Delay = 3.81>
ST_3 : Operation 17 [1/1] (0.39ns)   --->   "%tmp_1 = call i32 @_ssdm_op_Mux.ap_auto.4i32.i2(i32 193962, i32 337781, i32 222242, i32 470153, i2 %trunc_ln63)" [firmware/nnet_utils/nnet_batchnorm_stream.h:63]   --->   Operation 17 'mux' 'tmp_1' <Predicate = true> <Delay = 0.39> <Core = "MuxnS">   --->   Core 31 'MuxnS' <Latency = 0> <II = 1> <Delay = 0.39> <FuncUnit> <Opcode : 'mux'> <InPorts = 2> <OutPorts = 1>
ST_3 : Operation 18 [1/1] (3.42ns)   --->   "%p_Val2_s = call fastcc i32 @"product_dense<ap_fixed,ap_fixed,ap_fixed >"(i32 %tmp_V, i32 %tmp_1)" [firmware/nnet_utils/nnet_batchnorm_stream.h:63]   --->   Operation 18 'call' 'p_Val2_s' <Predicate = true> <Delay = 3.42> <CoreType = "Generic">   --->   Core 0 '' <Latency = 0> <II = 1> <Delay = 1.00> <Generic> <Opcode : >

State 4 <SV = 3> <Delay = 2.85>
ST_4 : Operation 19 [1/1] (0.00ns)   --->   "call void (...)* @_ssdm_op_SpecLoopName([14 x i8]* @p_str192) nounwind" [firmware/nnet_utils/nnet_batchnorm_stream.h:48]   --->   Operation 19 'specloopname' <Predicate = true> <Delay = 0.00>
ST_4 : Operation 20 [1/1] (0.00ns)   --->   "%tmp = call i32 (...)* @_ssdm_op_SpecRegionBegin([14 x i8]* @p_str192)" [firmware/nnet_utils/nnet_batchnorm_stream.h:48]   --->   Operation 20 'specregionbegin' 'tmp' <Predicate = true> <Delay = 0.00>
ST_4 : Operation 21 [1/1] (0.00ns)   --->   "call void (...)* @_ssdm_op_SpecPipeline(i32 1760, i32 1, i32 1, i32 0, [1 x i8]* @p_str28) nounwind" [firmware/nnet_utils/nnet_batchnorm_stream.h:49]   --->   Operation 21 'specpipeline' <Predicate = true> <Delay = 0.00>
ST_4 : Operation 22 [1/1] (0.00ns) (grouped into LUT with out node out_data_V)   --->   "%p_Val2_1 = call i32 @_ssdm_op_Mux.ap_auto.4i32.i2(i32 37254, i32 71889, i32 205295, i32 -652220, i2 %trunc_ln63)" [firmware/nnet_utils/nnet_batchnorm_stream.h:63]   --->   Operation 22 'mux' 'p_Val2_1' <Predicate = true> <Delay = 0.00> <Core = "MuxnS">   --->   Core 31 'MuxnS' <Latency = 0> <II = 1> <Delay = 0.39> <FuncUnit> <Opcode : 'mux'> <InPorts = 2> <OutPorts = 1>
ST_4 : Operation 23 [1/1] (1.01ns) (out node of the LUT)   --->   "%out_data_V = add i32 %p_Val2_1, %p_Val2_s" [firmware/nnet_utils/nnet_batchnorm_stream.h:63]   --->   Operation 23 'add' 'out_data_V' <Predicate = true> <Delay = 1.01> <Core = "AddSub">   --->   Core 14 'AddSub' <Latency = 0> <II = 1> <Delay = 1.01> <FuncUnit> <Opcode : 'add' 'sub'> <InPorts = 2> <OutPorts = 1>
ST_4 : Operation 24 [1/1] (1.83ns)   --->   "call void @_ssdm_op_Write.ap_fifo.volatile.i32P(i32* %res_V_V, i32 %out_data_V)" [firmware/nnet_utils/nnet_batchnorm_stream.h:66]   --->   Operation 24 'write' <Predicate = true> <Delay = 1.83> <Core = "FIFO">   --->   Core 32 'FIFO' <Latency = 0> <II = 1> <Delay = 1.83> <Storage> <Opcode : 'read' 'write' 'nbread' 'nbwrite'> <Ports = 0> <Width = 32> <Depth = 1> <FIFO>
ST_4 : Operation 25 [1/1] (0.00ns)   --->   "%empty_139 = call i32 (...)* @_ssdm_op_SpecRegionEnd([14 x i8]* @p_str192, i32 %tmp)" [firmware/nnet_utils/nnet_batchnorm_stream.h:67]   --->   Operation 25 'specregionend' 'empty_139' <Predicate = true> <Delay = 0.00>
ST_4 : Operation 26 [1/1] (0.00ns)   --->   "br label %1" [firmware/nnet_utils/nnet_batchnorm_stream.h:48]   --->   Operation 26 'br' <Predicate = true> <Delay = 0.00>


============================================================
+ Verbose Summary: Timing violations
============================================================
Target clock period: 5ns, clock uncertainty: 0.625ns.

 <State 1>: 0.656ns
The critical path consists of the following:
	multiplexor before 'phi' operation ('i') with incoming values : ('i', firmware/nnet_utils/nnet_batchnorm_stream.h:48) [8]  (0.656 ns)

 <State 2>: 1.84ns
The critical path consists of the following:
	fifo read on port 'data_V_V' (firmware/nnet_utils/nnet_batchnorm_stream.h:51) [17]  (1.84 ns)

 <State 3>: 3.81ns
The critical path consists of the following:
	'mux' operation ('tmp_1', firmware/nnet_utils/nnet_batchnorm_stream.h:63) [19]  (0.392 ns)
	'call' operation ('__Val2__', firmware/nnet_utils/nnet_batchnorm_stream.h:63) to 'product_dense<ap_fixed,ap_fixed,ap_fixed >' [20]  (3.42 ns)

 <State 4>: 2.85ns
The critical path consists of the following:
	'mux' operation ('__Val2__', firmware/nnet_utils/nnet_batchnorm_stream.h:63) [21]  (0 ns)
	'add' operation ('out_data.V', firmware/nnet_utils/nnet_batchnorm_stream.h:63) [22]  (1.02 ns)
	fifo write on port 'res_V_V' (firmware/nnet_utils/nnet_batchnorm_stream.h:66) [23]  (1.84 ns)


============================================================
+ Verbose Summary: Binding
============================================================
N/A
* FSMD analyzer results:
  - Output states:
 - Input state : 
  - Chain level:
	State 1
	State 2
	State 3
	State 4


============================================================
+ Verbose Summary: Datapath Resource usage 
============================================================
N/A
